{"hash":"54937e1cf0e2cc3ada1e1a21db40ff838732bb4b","data":{"posts":{"totalCount":8,"pageInfo":{"totalPages":3,"currentPage":2},"edges":[{"node":{"id":"470f3ce50573022dd5907b5af594bb0d","title":"Vue vs React Comparison","date":"March 27, 2019","summary":"Lorem ipsum dolor sit amet consectetur adipisicing elit. Hic rerum earum quos explicabo suscipit maxime iste qui nihil. Reiciendis asperiores minus necessitatibus","timeToRead":1,"path":"/vue-vs-react-comparison","cover":"https://i.imgur.com/2F3Al82l.jpg","writers":[],"seriess":[]}},{"node":{"id":"59f504ddf6ceb023047d4243f7ea23bd","title":"What I Ate for Breakfast","date":"March 21, 2019","summary":"Lorem ipsum dolor sit amet consectetur adipisicing elit. Hic rerum earum quos explicabo suscipit maxime iste qui nihil. Reiciendis asperiores minus necessitatibus","timeToRead":1,"path":"/what-i-ate-for-breakfast","cover":"https://i.imgur.com/2F3Al82l.jpg","writers":[],"seriess":[]}},{"node":{"id":"b4121db36717b12f18800c2648bd8284","title":"Freelance vs Full Time Work","date":"March 17, 2019","summary":"Lorem ipsum dolor sit amet consectetur adipisicing elit. Hic rerum earum quos explicabo suscipit maxime iste qui nihil. Reiciendis asperiores minus necessitatibus","timeToRead":1,"path":"/freelance-vs-full-time-work","cover":"https://i.imgur.com/2F3Al82l.jpg","writers":[],"seriess":[]}}]}},"context":{}}