{"hash":"54937e1cf0e2cc3ada1e1a21db40ff838732bb4b","data":{"posts":{"totalCount":8,"pageInfo":{"totalPages":3,"currentPage":1},"edges":[{"node":{"id":"9e70cfb46da7ef1c03cf301eaec915a7","title":"Introduction to Gridsome","date":"April 8, 2019","summary":"Gridsome is a Vue.js-powered, modern site generator for building the fastest possible websites for any Headless CMS, APIs or Markdown-files.","timeToRead":2,"path":"/introduction-to-gridsome","cover":"https://i.imgur.com/2F3Al82l.jpg","writers":[{"title":"rafi","path":"/writer/rafi/"}],"seriess":[]}},{"node":{"id":"a4a5e6b2ec630e3ab4e49487b3cbcfc2","title":"How to Get Better At Coding","date":"April 5, 2019","summary":"Lorem ipsum dolor sit amet consectetur adipisicing elit. Hic rerum earum quos explicabo suscipit maxime iste qui nihil. Reiciendis asperiores minus necessitatibus","timeToRead":2,"path":"/how-to-get-better-at-coding","cover":"https://i.imgur.com/2F3Al82l.jpg","writers":[],"seriess":[]}},{"node":{"id":"67c9012e38724f11a53795db4941d616","title":"Top 5 Static Site Generators in Vue","date":"April 3, 2019","summary":"Lorem ipsum dolor sit amet consectetur adipisicing elit. Hic rerum earum quos explicabo suscipit maxime iste qui nihil. Reiciendis asperiores minus necessitatibus","timeToRead":1,"path":"/top-5-static-site-generators-in-vue","cover":"https://i.imgur.com/2F3Al82l.jpg","writers":[],"seriess":[]}}]}},"context":{}}