{"hash":"54937e1cf0e2cc3ada1e1a21db40ff838732bb4b","data":{"tag":{"title":"frontend","belongsTo":{"totalCount":5,"pageInfo":{"totalPages":2,"currentPage":1},"edges":[{"node":{"title":"Introduction to Gridsome","date":"April 8, 2019","summary":"Gridsome is a Vue.js-powered, modern site generator for building the fastest possible websites for any Headless CMS, APIs or Markdown-files.","timeToRead":2,"path":"/introduction-to-gridsome","cover":"https://i.imgur.com/2F3Al82l.jpg","writers":[{"title":"rafi","path":"/writer/rafi/"}],"tags":[{"title":"frontend","path":"/tag/frontend/"},{"title":"coding","path":"/tag/coding/"},{"title":"vue","path":"/tag/vue/"}]}},{"node":{"title":"How to Get Better At Coding","date":"April 5, 2019","summary":"Lorem ipsum dolor sit amet consectetur adipisicing elit. Hic rerum earum quos explicabo suscipit maxime iste qui nihil. Reiciendis asperiores minus necessitatibus","timeToRead":2,"path":"/how-to-get-better-at-coding","cover":"https://i.imgur.com/2F3Al82l.jpg","writers":[],"tags":[{"title":"coding","path":"/tag/coding/"},{"title":"frontend","path":"/tag/frontend/"},{"title":"backend","path":"/tag/backend/"}]}},{"node":{"title":"Top 5 Static Site Generators in Vue","date":"April 3, 2019","summary":"Lorem ipsum dolor sit amet consectetur adipisicing elit. Hic rerum earum quos explicabo suscipit maxime iste qui nihil. Reiciendis asperiores minus necessitatibus","timeToRead":1,"path":"/top-5-static-site-generators-in-vue","cover":"https://i.imgur.com/2F3Al82l.jpg","writers":[],"tags":[{"title":"frontend","path":"/tag/frontend/"},{"title":"coding","path":"/tag/coding/"},{"title":"vue","path":"/tag/vue/"}]}}]}}},"context":{}}