{"hash":"54937e1cf0e2cc3ada1e1a21db40ff838732bb4b","data":{"tag":{"title":"coding","belongsTo":{"totalCount":4,"pageInfo":{"totalPages":2,"currentPage":2},"edges":[{"node":{"title":"Vue vs React Comparison","date":"March 27, 2019","summary":"Lorem ipsum dolor sit amet consectetur adipisicing elit. Hic rerum earum quos explicabo suscipit maxime iste qui nihil. Reiciendis asperiores minus necessitatibus","timeToRead":1,"path":"/vue-vs-react-comparison","cover":"https://i.imgur.com/2F3Al82l.jpg","writers":[],"tags":[{"title":"frontend","path":"/tag/frontend/"},{"title":"vue","path":"/tag/vue/"},{"title":"react","path":"/tag/react/"},{"title":"coding","path":"/tag/coding/"}]}}]}}},"context":{}}